<svg width="28" height="28" viewBox="0 0 28 28" fill="none" xmlns="http://www.w3.org/2000/svg">
<path d="M2 22.9981C2 18.014 2 13.0298 2 8.04621C2.13442 8.04308 2.15818 8.15249 2.19131 8.24377C2.49517 9.07968 3.23604 9.48795 4.05945 9.49607C4.30015 9.49857 4.54211 9.47669 4.78282 9.50795C5.65311 9.46919 6.52341 9.50108 7.3937 9.48732C7.70256 9.5117 8.01141 9.48294 8.32026 9.48795C8.68414 9.4942 9.04864 9.48982 9.41251 9.4867C9.56756 9.53421 9.72261 9.4867 9.87767 9.4867C12.843 9.4892 15.8084 9.4892 18.7738 9.4867C18.9439 9.4867 19.1152 9.53921 19.2846 9.48044C19.9417 9.49545 20.5994 9.4892 21.2571 9.48732C21.6829 9.49545 22.1093 9.47607 22.5345 9.5017C23.1278 9.47607 23.7211 9.48732 24.3144 9.49357C24.6583 9.49732 24.8246 9.66676 24.8321 10.0194C24.8459 10.6596 24.8365 11.2998 24.8371 11.94C24.8384 12.7209 24.8384 13.5012 24.8365 14.2821C24.8359 14.414 24.8502 14.5478 24.8046 14.676C24.7096 14.8523 24.5414 14.8466 24.3763 14.8466C23.2391 14.8491 22.1006 14.8716 20.9639 14.8416C19.4747 14.8022 18.2699 16.1346 18.49 17.6607C18.4987 17.7226 18.5 17.7851 18.4875 17.847C18.4049 18.019 18.4368 18.1953 18.4599 18.3747C18.5825 19.3263 19.042 20.0353 19.9254 20.4523C20.3331 20.6442 20.7701 20.678 21.2034 20.6867C22.225 20.7074 23.2478 20.6949 24.2694 20.6917C24.3807 20.6911 24.5308 20.7261 24.5645 20.5729C24.6014 20.4079 24.6283 20.226 24.5358 20.0715C24.4776 19.9746 24.3513 20.0059 24.2525 20.0059C23.2928 20.0034 22.3331 20.0053 21.3734 20.004C21.2722 20.004 21.1677 20.0159 21.0708 19.9877C20.9977 19.9665 20.8889 19.9471 20.9564 19.8196C21.0339 19.7502 21.1309 19.757 21.2234 19.7564C22.3081 19.752 23.3929 19.7514 24.4776 19.757C24.5708 19.7577 24.6664 19.7552 24.7446 19.8221C24.8309 19.9071 24.834 20.0171 24.8346 20.1272C24.8377 21.6264 24.8415 23.1263 24.8327 24.6256C24.8302 25.0332 24.6527 25.1976 24.2394 25.2076C24.1925 25.2089 24.1456 25.2089 24.0987 25.2089C17.5696 25.2095 11.0399 25.2089 4.51085 25.2101C4.03069 25.2101 3.57553 25.1101 3.17227 24.8538C2.49267 24.4236 2.03376 23.8422 2 22.9981Z" fill="#A95D24"/>
<path d="M24.7241 14.708C24.7697 14.7149 24.8154 14.7286 24.8604 14.7274C25.4668 14.7174 25.8219 15.0375 26.0001 15.5921C26.0001 16.7324 26.0001 17.8735 26.0001 19.0138C25.8901 19.6072 25.51 19.9604 24.9923 19.9535C24.8966 19.9523 24.8072 19.9417 24.7385 19.8666C23.4718 19.866 22.2045 19.866 20.9378 19.8654C20.8653 19.961 20.7596 19.9598 20.6596 19.946C19.6249 19.8047 18.884 19.2658 18.4657 18.3036C18.4051 18.1636 18.3882 18.0047 18.4007 17.8484C18.3144 17.282 18.345 16.7256 18.6039 16.2066C19.0497 15.3126 19.768 14.7799 20.7771 14.7518C21.9844 14.718 23.1929 14.7424 24.4015 14.7405C24.5096 14.7405 24.6203 14.7536 24.7241 14.708Z" fill="#F89508"/>
<path d="M2 7.2492C2.0819 7.20794 2.01751 7.10478 2.0819 7.05539C2.20507 7.03038 2.24383 7.12416 2.28385 7.20606C2.74775 8.15888 3.53364 8.5659 4.56649 8.55777C4.81533 8.55589 5.06479 8.55589 5.31362 8.55839C5.40615 8.55964 5.50181 8.55089 5.58434 8.60779C5.66499 8.67656 5.63686 8.75846 5.58309 8.81348C5.313 9.0892 5.09667 9.42681 4.71967 9.58249C4.2939 9.58812 3.86376 9.63126 3.44611 9.51622C2.76901 9.33053 2.30885 8.90601 2.08503 8.23391C2.06315 8.16889 2.02876 8.10887 2 8.04635C2 7.78063 2 7.51492 2 7.2492Z" fill="#68321A"/>
<path d="M19.2907 9.58051C19.1894 9.58363 19.0881 9.58864 18.9868 9.58864C15.8958 9.58926 12.8054 9.58926 9.71431 9.58864C9.61303 9.58864 9.51175 9.58238 9.41046 9.57863C9.37295 9.44671 9.47361 9.37919 9.54551 9.30416C9.76558 9.07471 9.99191 8.85151 10.2295 8.63956C10.2589 8.61081 10.2939 8.59392 10.3345 8.58642C10.3633 8.58517 10.392 8.58392 10.4208 8.58267C10.5677 8.55954 10.7153 8.55141 10.8635 8.55204C13.1711 8.55266 15.4781 8.55266 17.7858 8.55204C17.934 8.55204 18.0815 8.55704 18.2272 8.58267C18.2535 8.58392 18.2803 8.58517 18.306 8.5858C18.4948 8.66582 18.628 8.81713 18.7693 8.95717C18.9062 9.09347 19.0443 9.22851 19.1788 9.36731C19.2357 9.42608 19.3132 9.47797 19.2907 9.58051Z" fill="#6D8815"/>
<path d="M18.4008 17.8481C18.6346 18.6572 19.0948 19.2793 19.8757 19.6369C20.2126 19.7913 20.5684 19.8607 20.9373 19.8657C21.0229 19.9201 21.1192 19.9013 21.2111 19.9013C22.2796 19.9026 23.3481 19.9076 24.4166 19.8976C24.6335 19.8957 24.6973 19.9632 24.6942 20.1771C24.686 20.7923 24.6942 20.7923 24.0783 20.7923C23.1968 20.7923 22.3152 20.796 21.4343 20.791C20.841 20.7879 20.2545 20.7573 19.7093 20.4665C18.8134 19.9882 18.2426 18.931 18.3651 17.9332C18.3695 17.9038 18.3889 17.8763 18.4008 17.8481Z" fill="#7C3D1E"/>
<path d="M4.71924 9.58211C5.01621 9.27325 5.31319 8.9644 5.61016 8.65492C5.63455 8.5924 5.68206 8.56739 5.74709 8.57052C6.51485 8.53363 7.28323 8.55739 8.05099 8.55676C8.12101 8.55676 8.19104 8.56239 8.24981 8.6074C8.32796 8.67243 8.31358 8.7537 8.25669 8.81185C7.98722 9.08632 7.77215 9.4233 7.39639 9.57898C6.50422 9.58023 5.61142 9.58148 4.71924 9.58211Z" fill="#6D8815"/>
<path d="M19.2909 9.58015C18.9551 9.29818 18.6556 8.97932 18.3574 8.65984C18.4174 8.55355 18.5231 8.55605 18.6225 8.55605C19.1558 8.5548 19.6891 8.5398 20.2224 8.56606C20.2768 8.5548 20.3287 8.55918 20.3781 8.58481C20.6469 8.80676 20.8889 9.05747 21.1315 9.30756C21.204 9.38196 21.3034 9.45073 21.2622 9.58265C20.6051 9.58203 19.948 9.5814 19.2909 9.58015Z" fill="#789F17"/>
<path d="M7.396 9.5792C7.67797 9.2741 7.96619 8.97587 8.27942 8.7014C8.33631 8.63263 8.41572 8.63326 8.49387 8.63263C9.00842 8.63076 9.52359 8.63013 10.0381 8.63263C10.1157 8.63326 10.1969 8.62825 10.2513 8.70203C9.97124 8.994 9.69052 9.2866 9.41043 9.57858C8.73895 9.5792 8.06747 9.5792 7.396 9.5792Z" fill="#789F17"/>
<path d="M21.2623 9.5829C20.9647 9.27405 20.6671 8.96519 20.3701 8.65634C20.4339 8.55255 20.5396 8.55693 20.6402 8.55568C21.1773 8.54943 21.7143 8.55005 22.2514 8.55505C22.3539 8.55568 22.4552 8.56193 22.524 8.65571C22.529 8.96519 22.534 9.27467 22.539 9.58415C22.1132 9.58353 21.6874 9.58353 21.2623 9.5829Z" fill="#68321A"/>
<path d="M20.2819 8.6095C20.2018 8.6789 20.1043 8.65452 20.013 8.65514C19.4609 8.65827 18.9089 8.6589 18.3568 8.66077C18.3424 8.65827 18.3281 8.65577 18.3137 8.65452C18.1486 8.59262 18.0236 8.47884 17.901 8.35629C17.1633 7.61479 16.423 6.87454 15.6822 6.13617C15.4002 5.85545 15.3521 5.85357 15.0282 6.0849C14.5899 6.39751 14.0766 6.39563 13.6321 6.07927C13.322 5.85857 13.252 5.86045 12.9744 6.13617C12.2316 6.87329 11.4926 7.61417 10.7549 8.35567C10.6323 8.47884 10.5067 8.59137 10.3429 8.65452C10.3279 8.65577 10.3135 8.65765 10.2985 8.6589C9.67639 8.70329 9.05305 8.66577 8.43097 8.6789C8.29092 8.68203 8.29467 8.6095 8.34031 8.5151C8.3747 8.44382 8.43284 8.39005 8.48786 8.33504C9.88333 6.93956 11.2788 5.54347 12.6743 4.14799C12.7587 4.06359 12.8443 3.98669 12.9694 3.97356C13.3326 3.67909 13.6365 3.32334 13.9716 2.99948C14.2586 2.72251 14.3955 2.71751 14.6775 2.99886C15.3889 3.70847 16.0986 4.41934 16.8094 5.12895C16.8807 5.20023 16.9589 5.26462 17.0339 5.33214C17.1677 5.37966 17.2821 5.45219 17.3846 5.55472C18.2912 6.46565 19.2021 7.37221 20.108 8.28377C20.195 8.3713 20.3287 8.44507 20.2819 8.6095Z" fill="#89CB19"/>
<path d="M5.69888 8.60551C5.6695 8.62239 5.63949 8.63865 5.6101 8.65553C5.05804 8.63177 4.50223 8.70805 3.95266 8.60864C3.1055 8.45484 2.51093 7.98155 2.17331 7.18753C2.15268 7.13939 2.11267 7.09875 2.08203 7.05499C2.34587 6.0509 3.23367 5.33378 4.26277 5.32753C5.82205 5.31815 7.38195 5.32878 8.94123 5.33128C8.97874 5.45195 8.89309 5.52134 8.82431 5.59074C7.86524 6.55544 6.90241 7.5164 5.93959 8.47797C5.87269 8.54487 5.80016 8.60239 5.69888 8.60551Z" fill="#7C3D1E"/>
<path d="M5.69873 8.60593C6.71095 7.58933 7.72379 6.57274 8.73601 5.55552C8.80728 5.48424 8.87293 5.40672 8.94108 5.33232C9.5244 4.7565 10.1077 4.18068 10.6904 3.60423C10.9011 3.39541 11.1093 3.18346 11.3206 2.97527C11.5701 2.72831 11.7233 2.72769 11.9765 2.97902C12.3091 3.30913 12.6386 3.64237 12.9693 3.97436C12.9068 4.04376 12.8468 4.11566 12.7805 4.1813C11.3681 5.59428 9.9558 7.00726 8.54094 8.41836C8.48092 8.47838 8.39839 8.51527 8.3265 8.56341C8.34275 8.59592 8.35901 8.62781 8.37526 8.66032C9.0161 8.66032 9.65757 8.66032 10.2984 8.66032C10.2828 8.6747 10.2665 8.6897 10.2509 8.70408C9.5938 8.70408 8.93608 8.70346 8.27898 8.70346C8.19895 8.63406 8.10204 8.65844 8.01139 8.65844C7.32928 8.65657 6.64718 8.65844 5.96507 8.65657C5.87441 8.65469 5.77751 8.67657 5.69873 8.60593Z" fill="#78A917"/>
<path d="M20.282 8.60943C19.2679 7.59159 18.2538 6.57374 17.2404 5.55527C17.1691 5.48337 17.1028 5.40647 17.0347 5.33207C18.7421 5.32957 20.4496 5.3252 22.1577 5.3252C22.399 5.3252 22.5303 5.46087 22.5303 5.70845C22.5315 6.69066 22.5272 7.67286 22.5247 8.6557C21.8069 8.6557 21.0885 8.65632 20.3708 8.65632C20.3408 8.64069 20.3114 8.62506 20.282 8.60943Z" fill="#7C3D1E"/>
<path d="M20.0903 17.2916C20.0916 16.6282 20.578 16.1506 21.2482 16.1531C21.8103 16.155 22.3649 16.5726 22.3786 17.3116C22.3905 17.9256 21.8322 18.4514 21.217 18.4495C20.5974 18.4476 20.0891 17.9256 20.0903 17.2916Z" fill="#FECF39"/>
<path d="M10.3428 8.65419C10.8573 8.13277 11.3706 7.61071 11.8864 7.09054C12.2378 6.73604 12.5935 6.38592 12.9443 6.03143C13.1944 5.77822 13.3851 5.74071 13.6645 5.98391C14.0715 6.33778 14.6067 6.31152 15.0325 5.95953C15.2682 5.76509 15.4332 5.75634 15.6277 5.94953C16.5067 6.82357 17.3814 7.70137 18.2573 8.57854C18.2792 8.60042 18.2948 8.62793 18.3136 8.65294C15.6571 8.65419 12.9999 8.65419 10.3428 8.65419Z" fill="#789F17"/>
</svg>
