<svg width="25" height="18" viewBox="0 0 25 18" fill="none" xmlns="http://www.w3.org/2000/svg">
<g clip-path="url(#clip0_882_1528)">
<path opacity="0.2" d="M16.7065 2.36057H2.24771C1.57179 2.36057 0.77832 3.13934 0.77832 3.82995V14.8504C0.77832 15.541 1.57179 16.3197 2.24771 16.3197H20.6151C21.291 16.3197 22.0844 15.541 22.0844 14.8504V9.31812C21.4655 9.87487 20.7011 10.2443 19.8804 10.3834V10.4422C19.8804 10.9271 19.6159 11.1769 19.1457 11.1769H2.9824C2.5122 11.1769 2.24771 10.9271 2.24771 10.4422V9.7075C2.24771 9.22261 2.5122 8.97281 2.9824 8.97281H15.8616C15.4375 8.50281 15.12 7.94671 14.9308 7.34259C14.7415 6.73847 14.6851 6.10059 14.7654 5.47264C14.8456 4.84468 15.0606 4.24149 15.3956 3.70435C15.7307 3.16721 16.1778 2.70882 16.7065 2.36057V2.36057Z" fill="#697386"/>
<path d="M14.9873 4.56465H0.77832V6.76873H14.7963C14.6729 6.02969 14.7386 5.27144 14.9873 4.56465Z" fill="#697386"/>
</g>
<path d="M19.5909 11.0789C18.2301 11.0789 16.9251 10.5371 15.9629 9.57262C15.0008 8.60815 14.4602 7.30004 14.4602 5.93607C14.4602 4.5721 15.0008 3.26399 15.9629 2.29952C16.9251 1.33505 18.2301 0.793213 19.5909 0.793213C20.9516 0.793213 22.2566 1.33505 23.2188 2.29952C24.181 3.26399 24.7215 4.5721 24.7215 5.93607C24.7215 7.30004 24.181 8.60815 23.2188 9.57262C22.2566 10.5371 20.9516 11.0789 19.5909 11.0789ZM17.5533 3.80546H16.9742L15.5596 4.52546V5.26015L16.6811 4.6724V8.06668H17.5606V3.80546H17.5533ZM19.2391 4.39321C19.6568 4.39321 19.95 4.62831 19.95 4.96627C19.95 5.33362 19.6055 5.59076 19.1071 5.59076H18.8872V6.21525H19.1511C19.6788 6.21525 20.038 6.47974 20.038 6.86178C20.038 7.22913 19.6862 7.47893 19.1878 7.47893C18.8213 7.47893 18.4548 7.36138 18.0737 7.13362V7.86832C18.4841 8.04464 18.8946 8.14015 19.2977 8.14015C20.2579 8.14015 20.9175 7.64791 20.9175 6.93525C20.9175 6.43566 20.6097 6.03158 20.0966 5.86995C20.5364 5.72301 20.8222 5.33362 20.8222 4.8928C20.8222 4.20219 20.2139 3.73199 19.3343 3.73199C18.9379 3.7364 18.5464 3.82138 18.1836 3.98178V4.70178C18.5354 4.50342 18.8946 4.39321 19.2391 4.39321ZM22.4054 5.99485C22.9405 5.99485 23.3143 6.31076 23.3143 6.72219C23.3143 7.15566 22.9405 7.45689 22.4054 7.45689C22.0829 7.45689 21.7458 7.35403 21.4013 7.14097V7.8977C21.7604 8.05934 22.1269 8.14015 22.486 8.14015C22.6766 8.14015 22.8525 8.11076 23.0211 8.06668C23.4022 7.44219 23.6221 6.72219 23.6221 5.95076L23.6075 5.64219C23.3349 5.4805 23.0225 5.39902 22.7059 5.40709C22.574 5.40709 22.4347 5.41444 22.2881 5.43648V4.48138H23.3436C23.2521 4.24621 23.1392 4.01996 23.0064 3.80546H21.5259V6.11974C21.8191 6.04627 22.1122 5.99485 22.4054 5.99485Z" fill="#697386"/>
<defs>
<clipPath id="clip0_882_1528">
<rect width="23.5102" height="15.4286" fill="white" transform="translate(0.77832 2.36057)"/>
</clipPath>
</defs>
</svg>
